{
    "user_name": "big-boss-2",
    "num_solved": 0,
    "num_total": 4,
    "ac_easy": 0,
    "ac_medium": 0,
    "ac_hard": 0,
    "stat_status_pairs": [
        {
            "stat": {
                "question_id": 195,
                "question__title": "Tenth Line",
                "question__title_slug": "tenth-line",
                "question__hide": false,
                "total_acs": 12254,
                "total_submitted": 28554,
                "total_column_articles": 22,
                "frontend_question_id": "195",
                "is_new_question": false
            },
            "status": null,
            "difficulty": {
                "level": 1
            },
            "paid_only": false,
            "is_favor": false,
            "frequency": 0,
            "progress": 0
        },
        {
            "stat": {
                "question_id": 194,
                "question__title": "Transpose File",
                "question__title_slug": "transpose-file",
                "question__hide": false,
                "total_acs": 3456,
                "total_submitted": 10567,
                "total_column_articles": 14,
                "frontend_question_id": "194",
                "is_new_question": false
            },
            "status": null,
            "difficulty": {
                "level": 2
            },
            "paid_only": false,
            "is_favor": false,
            "frequency": 0,
            "progress": 0
        },
        {
            "stat": {
                "question_id": 193,
                "question__title": "Valid Phone Numbers",
                "question__title_slug": "valid-phone-numbers",
                "question__hide": false,
                "total_acs": 7739,
                "total_submitted": 28594,
                "total_column_articles": 31,
                "frontend_question_id": "193",
                "is_new_question": false
            },
            "status": null,
            "difficulty": {
                "level": 1
            },
            "paid_only": false,
            "is_favor": false,
            "frequency": 0,
            "progress": 0
        },
        {
            "stat": {
                "question_id": 192,
                "question__title": "Word Frequency",
                "question__title_slug": "word-frequency",
                "question__hide": false,
                "total_acs": 6954,
                "total_submitted": 21067,
                "total_column_articles": 34,
                "frontend_question_id": "192",
                "is_new_question": false
            },
            "status": null,
            "difficulty": {
                "level": 2
            },
            "paid_only": false,
            "is_favor": false,
            "frequency": 0,
            "progress": 0
        }
    ],
    "frequency_high": 0,
    "frequency_mid": 0,
    "category_slug": "shell"
}